<svg xmlns="http://www.w3.org/2000/svg" viewBox="0 0 100 100">
  <path d="M10 50A40 40 0 0 0 90 50A40 43.7 0 0 1 10 50" fill="currentColor">
    <animateTransform attributeName="transform" type="rotate" dur="1s" repeatCount="indefinite" keyTimes="0;1" values="0 50 51.85;360 50 51.85"/>
  </path>
</svg>